<?xml version="1.0" encoding="utf-8"?>
<!-- Generator: Adobe Illustrator 25.1.0, SVG Export Plug-In . SVG Version: 6.00 Build 0)  -->
<svg version="1.1" id="Слой_1" xmlns="http://www.w3.org/2000/svg" xmlns:xlink="http://www.w3.org/1999/xlink" x="0px" y="0px"
	 viewBox="0 0 384 238.6" style="enable-background:new 0 0 384 238.6;" xml:space="preserve">
<style type="text/css">
	.st0{fill:#D5D6DF;}
</style>
<path class="st0" d="M209.5,0l-24.1,21.1l43.3,49.5h-69l-37.2-46.5l-25,20l21.2,26.5h-51L0,109.3v97.3h58.8
	c6.6,18.6,24.3,32,45.2,32s38.6-13.4,45.2-32h85.6c6.6,18.6,24.3,32,45.2,32s38.6-13.4,45.2-32H384V97.8L272.6,72.1L209.5,0z
	 M104,206.6c-8.8,0-16-7.2-16-16c0-8.8,7.2-16,16-16s16,7.2,16,16C120,199.4,112.8,206.6,104,206.6z M280,206.6c-8.8,0-16-7.2-16-16
	c0-8.8,7.2-16,16-16s16,7.2,16,16C296,199.4,288.8,206.6,280,206.6z M352,174.6h-26.8c-6.6-18.6-24.3-32-45.2-32s-38.6,13.4-45.2,32
	h-85.6c-6.6-18.6-24.3-32-45.2-32s-38.6,13.4-45.2,32H32v-46.7l44.2-25.3H136v32h32v-32h94.2l89.8,20.7V174.6z"/>
</svg>
